{
  "items": [
    {"id": "p1", "workspace_id": "ws1", "created_at": "2025-01-15T10:30:00Z", "metadata": {"role": "admin"}, "configuration": {"lang": "en"}},
    {"id": "p2", "workspace_id": "ws1", "created_at": "2025-02-20T08:00:00Z"}
  ],
  "total": 42,
  "page": 2,
  "size": 10,
  "pages": 5
}