{
  "items": [
    {
      "id": "ws_one",
      "metadata": {
        "region": "us-east"
      },
      "configuration": {
        "reasoning": {
          "enabled": true
        }
      },
      "created_at": "2025-03-01T00:00:00Z"
    },
    {
      "id": "ws_two",
      "created_at": "2025-03-02T12:00:00Z"
    }
  ],
  "total": 42,
  "page": 2,
  "size": 20,
  "pages": 3
}
